     1                                  SECTION .bss
     2                                  
     3                                  ;los dos contadores están guardando la cantidad de digitos introducidos en ascii por el usuario
     4 00000000 <res 00000004>          contadorx: resb 4
     5 00000004 <res 00000004>          contadory: resb 4
     6                                  ;los dos numeros tienen los enteros que corresponden a los asciis introducidos por el usuario
     7 00000008 <res 00000004>          numerox: resb 4
     8 0000000C <res 00000004>          numeroy: resb 4
     9                                  ;en matriz se almacenan los asciis que corresponden a la matriz
    10                                  ;tamaño máximo de matriz 15x15
    11 00000010 <res 000000E1>          matriz: resb 225
    12                                  ;letra que corresponde al movimiento
    13 000000F1 <res 00000004>          letra_revisada: resb 4
    14                                  
    15                                  ;numero de argumentos
    16 000000F5 <res 00000004>          n_argumentos_introducidos: resb 4
    17                                  
    18                                  ;guarda el --(cosa por hacer) insertada por el usuario como argumento
    19 000000F9 <res 00000004>          argumento_opcion: resb 4
    20 000000FD <res 00000004>          largo_opcion: resb 4
    21                                  
    22 00000101 <res 00000004>          nombre_archivo: resb 4
    23                                  
    24                                  
    25 00000105 <res 00000004>          entrada_movimiento_tamanno: resb 4
    26                                  
    27                                  ;sirven para guardar largo de la entrada del usuario y la entrada respectivamente
    28 00000109 <res 00000004>          largox: resb 4
    29 0000010D <res 00000004>          largoy: resb 4
    30 00000111 <res 00000004>          entrada_desplegable_x: resb 4
    31 00000115 <res 00000004>          entrada_desplegable_y: resb 4
    32                                  
    33                                  ;posicion del jugador
    34 00000119 <res 00000004>          desplegablex: resb 4
    35 0000011D <res 00000004>          desplegabley: resb 4
    36                                  
    37                                  ;random
    38 00000121 <res 00000004>          numero: resb 4
    39                                  ;posicion de bombas y tesoro
    40 00000125 <res 00000004>          BombaX: resb 4
    41 00000129 <res 00000004>          BombaY: resb 4
    42 0000012D <res 00000004>          TesoroX: resb 4
    43 00000131 <res 00000004>          TesoroY: resb 4
    44                                  
    45                                  ;usado en el manejo de archivos, donde se guarda el fd
    46 00000135 <res 00000004>          id1: resb 4
    47                                  
    48                                  ;total de casillas de la matriz
    49 00000139 <res 0000000C>          total_matriz: resb 12
    50                                  ;para guardar el archivo de texto en caso de cargar un nuevo archivo
    51 00000145 <res 000000FA>          matriz_cargada:resb 250
    52                                  
    53 0000023F <res 00000004>          posicionPX: resb 4
    54 00000243 <res 00000004>          posicionPY: resb 4
    55                                  SECTION .data
    56                                  ; Definición de los mensajes y sus respectivos largos
    57                                  ;los mensajes con unicamente espacios vacios servirán para ser modificados y guardar datos
    58                                  
    59 00000000 496E6772657365206E-     mensaje: db "Ingrese numero de filas y columnas mayores para su tablero", 0x0A
    59 00000009 756D65726F20646520-
    59 00000012 66696C617320792063-
    59 0000001B 6F6C756D6E6173206D-
    59 00000024 61796F726573207061-
    59 0000002D 726120737520746162-
    59 00000036 6C65726F0A         
    60                                  largo: equ $-mensaje
    61                                  
    62 0000003B 496E67726573652065-     mensaje1: db "Ingrese el número de columnas:",0x0A
    62 00000044 6C206EC3BA6D65726F-
    62 0000004D 20646520636F6C756D-
    62 00000056 6E61733A0A         
    63                                  largo1: equ $-mensaje1
    64                                  
    65                                  ;aqui se guarda el numero en ascii que corresponde a x
    66 0000005B 2020200A                x: db "   ", 0x0A  
    67                                  largo3: equ $-x
    68                                  
    69 0000005F 496E67726573652065-     mensaje2: db "Ingrese el número de filas:",0x0A
    69 00000068 6C206EC3BA6D65726F-
    69 00000071 2064652066696C6173-
    69 0000007A 3A0A               
    70                                  largo4: equ $-mensaje2
    71                                  
    72                                  ;aqui se guarda el numero en ascii que corresponde a y
    73 0000007C 2020200A                y: db "   ", 0x0A  
    74                                  largo5: equ $-y
    75                                  
    76                                  ;usado para imprimir matriz
    77 00000080 202D2D2D2D2D2D2D2D-     linea_horizontal: db " -----------------------------------------------------------------", 0x0A
    77 00000089 2D2D2D2D2D2D2D2D2D-
    77 00000092 2D2D2D2D2D2D2D2D2D-
    77 0000009B 2D2D2D2D2D2D2D2D2D-
    77 000000A4 2D2D2D2D2D2D2D2D2D-
    77 000000AD 2D2D2D2D2D2D2D2D2D-
    77 000000B6 2D2D2D2D2D2D2D2D2D-
    77 000000BF 2D2D2D0A           
    78                                  largo_horizontal: equ $-linea_horizontal
    79                                  ;usado para imprimir matriz
    80 000000C3 207C20                  linea_vertical: db " | "
    81                                  largo_vertical: equ $-linea_vertical
    82                                  
    83 000000C6 0A                      salto_linea: db 0x0A
    84 000000C7 20                      espacio: db " "
    85                                  
    86 000000C8 457370657265206D69-     mensaje3: db "Espere mientras carga el juego", 0x0A
    86 000000D1 656E74726173206361-
    86 000000DA 72676120656C206A75-
    86 000000E3 65676F0A           
    87                                  largo8: equ $-mensaje3
    88                                  
    89 000000E7 496E6772657365206C-     mensaje4: db "Ingrese la letra que desea introducir: ", 0x0A
    89 000000F0 61206C657472612071-
    89 000000F9 756520646573656120-
    89 00000102 696E74726F64756369-
    89 0000010B 723A200A           
    90 0000010F 28537573206F706369-     mensaje5: db "(Sus opciones son w,a,s,d estas mueven hacia arriba, izquierda, abajo, derecha correspondientemente)(Puede guardar introduciendo el numero 1) ", 0x0A
    90 00000118 6F6E657320736F6E20-
    90 00000121 772C612C732C642065-
    90 0000012A 73746173206D756576-
    90 00000133 656E20686163696120-
    90 0000013C 6172726962612C2069-
    90 00000145 7A717569657264612C-
    90 0000014E 206162616A6F2C2064-
    90 00000157 65726563686120636F-
    90 00000160 72726573706F6E6469-
    90 00000169 656E74656D656E7465-
    90 00000172 292850756564652067-
    90 0000017B 75617264617220696E-
    90 00000184 74726F64756369656E-
    90 0000018D 646F20656C206E756D-
    90 00000196 65726F203129200A   
    91                                  largo9: equ $-mensaje4
    92                                  
    93 0000019E 200A                    entrada_movimiento: db " ", 0x0A
    94                                  largo10: equ $-entrada_movimiento
    95                                  
    96 000001A0 200A                    entrada_usuario: db " ", 0x0A
    97                                  
    98 000001A2 496E67726573C3B320-     mensaje_error: db "Ingresó un caracter no valido", 0x0A
    98 000001AB 756E20636172616374-
    98 000001B4 6572206E6F2076616C-
    98 000001BD 69646F0A           
    99                                  largo_error: equ $-mensaje_error
   100                                  
   101 000001C1 496E67726573C3B320-     mensaje_error2: db "Ingresó un 0, con ello es imposible crear una matriz", 0x0A, 0x0A
   101 000001CA 756E20302C20636F6E-
   101 000001D3 20656C6C6F20657320-
   101 000001DC 696D706F7369626C65-
   101 000001E5 20637265617220756E-
   101 000001EE 61206D617472697A0A-
   101 000001F7 0A                 
   102                                  largo_error2: equ $-mensaje_error2
   103                                  
   104 000001F8 456C206DC3A178696D-     limite_matriz: db "El máximo de matriz que se puede ingresar es de 15x15", 0x0A
   104 00000201 6F206465206D617472-
   104 0000020A 697A20717565207365-
   104 00000213 20707565646520696E-
   104 0000021C 677265736172206573-
   104 00000225 206465203135783135-
   104 0000022E 0A                 
   105                                  largo_limite: equ $-limite_matriz
   106                                  
   107 0000022F 46656C696369646164-     mensaje_perdedor: db "Felicidades perdiste, una derrota es una lección para la victoria", 0x0A
   107 00000238 657320706572646973-
   107 00000241 74652C20756E612064-
   107 0000024A 6572726F7461206573-
   107 00000253 20756E61206C656363-
   107 0000025C 69C3B36E2070617261-
   107 00000265 206C6120766963746F-
   107 0000026E 7269610A           
   108                                  largo_perdedor: equ $-mensaje_perdedor
   109                                  
   110 00000272 46656C696369646164-     mensaje_ganador: db "Felicidades ganaste, merecemos un 100 en el proyecto", 0x0A
   110 0000027B 65732067616E617374-
   110 00000284 652C206D6572656365-
   110 0000028D 6D6F7320756E203130-
   110 00000296 3020656E20656C2070-
   110 0000029F 726F796563746F0A   
   111                                  largo_ganador: equ $-mensaje_ganador
   112                                  
   113 000002A7 496E67726573652073-     mensaje_menu: db "Ingrese su opción", 0x0A
   113 000002B0 75206F706369C3B36E-
   113 000002B9 0A                 
   114 000002BA 312E20437265617220-     mensaje_jugar: db "1. Crear nuevo juego", 0x0A
   114 000002C3 6E7565766F206A7565-
   114 000002CC 676F0A             
   115 000002CF 322E20436172676172-     mensaje_cargar: db "2. Cargar juego", 0x0A
   115 000002D8 206A7565676F0A     
   116                                  largo_menu: equ $-mensaje_menu
   117                                  
   118                                  
   119 000002DF 6D617472697A636172-     archivo_matriz2: db "matrizcargada.txt",0h
   119 000002E8 676164612E74787400 
   120                                  ;usado para separar datos en el archivo a guardar
   121 000002F1 3D                      separador: db "="
   122                                  tiempos:                      ;utilizados para delay en el sistema.
   123 000002F2 00000000                    tv_sec  dd 0
   124 000002F6 00000000                    tv_usec dd 0
   125                                  
   126                                  SECTION .text
   127                                  
   128                                  global _start
   129                                  
   130                                  _start:
   131                                  ;nop para que sea amigable con gdb
   132 00000000 90                          nop
   133                                      
   134 00000001 59                          pop ecx
   135 00000002 49                          dec ecx
   136 00000003 890D[F5000000]              mov dword[n_argumentos_introducidos],ecx
   137                                  
   138                                  _verificar_inicio:
   139 00000009 83F900                      cmp ecx, 0
   140 0000000C 0F8494000000                jz _menu
   141 00000012 83F903                      cmp ecx, 3
   142 00000015 7405                        jz _iniciar_juego
   143 00000017 83F902                      cmp ecx, 2
   144 0000001A 7467                        jz _iniciar_cargar
   145                                  
   146                                  _iniciar_juego:
   147 0000001C 58                          pop eax
   148 0000001D 58                          pop eax
   149 0000001E A3[F9000000]                mov dword[argumento_opcion], eax
   150 00000023 E891050000                  call _sacar_largo
   151 00000028 8915[FD000000]              mov dword[largo_opcion],edx
   152 0000002E 58                          pop eax
   153 0000002F A3[5B000000]                mov dword[x], eax
   154 00000034 E880050000                  call _sacar_largo
   155 00000039 8915[00000000]              mov dword[contadorx],edx
   156 0000003F 58                          pop eax
   157 00000040 A3[7C000000]                mov dword[y], eax
   158 00000045 E86F050000                  call _sacar_largo
   159 0000004A 8915[04000000]              mov dword[contadory],edx
   160                                  .convertir_ascii:
   161 00000050 A1[5B000000]                mov eax, dword[x]
   162 00000055 8D30                        lea esi, [eax]
   163 00000057 8B0D[00000000]              mov ecx, dword[contadorx]
   164 0000005D E871040000                  call _ascii_numero
   165 00000062 A3[08000000]                mov dword[numerox],eax
   166 00000067 A1[7C000000]                mov eax, dword[y]
   167 0000006C 8D30                        lea esi, [eax]
   168 0000006E 8B0D[04000000]              mov ecx, dword[contadory]
   169 00000074 E85A040000                  call _ascii_numero
   170 00000079 A3[0C000000]                mov dword[numeroy],eax
   171                                      
   172 0000007E E92F010000                  jmp _inicializa_matriz
   173                                  
   174                                  ;se crea un menu con 3 mensajes
   175                                  ;registros utilizados:
   176                                  ; edx, ecx , eax, ebx
   177                                  
   178                                  _iniciar_cargar:
   179 00000083 58                          pop eax
   180 00000084 58                          pop eax
   181 00000085 A3[F9000000]                mov dword[argumento_opcion], eax
   182 0000008A E82A050000                  call _sacar_largo
   183 0000008F 8915[FD000000]              mov dword[largo_opcion],edx
   184 00000095 58                          pop eax
   185 00000096 A3[DF020000]                mov dword[archivo_matriz2], eax
   186 0000009B 8B15[DF020000]              mov edx, dword[archivo_matriz2]
   187 000000A1 E9CE070000                  jmp _cargar_juego
   188                                  
   189                                  _menu:
   190 000000A6 B9[A7020000]                mov ecx, mensaje_menu
   191 000000AB BA38000000                  mov edx, largo_menu
   192 000000B0 E836040000                  call DisplayText
   193                                  
   194                                  .entrada_menu:
   195 000000B5 B803000000                  mov eax, 3
   196 000000BA BB02000000                  mov ebx, 2
   197 000000BF B9[A0010000]                mov ecx, entrada_usuario
   198 000000C4 BA02000000                  mov edx, 2
   199 000000C9 CD80                        int 80h
   200                                  ;se reduce el tamaño de eax para descontar el cambio de linea al introducir el ascii
   201 000000CB 48                          dec eax
   202 000000CC 83F800                      cmp eax, 0;se valida en caso de que no se ingrese nada
   203 000000CF 74D5                        jz _menu
   204                                  ;llama a la subrutina de _ascii_numero, se encarga de pasar un ascii a entero
   205                                  ;se le envia un puntero en esi y un contador con el tamaño del numero introducido
   206 000000D1 8D35[A0010000]              lea esi, [entrada_usuario]
   207 000000D7 B901000000                  mov ecx, 1
   208 000000DC E8F2030000                  call _ascii_numero
   209                                  
   210 000000E1 83FB01                      cmp ebx, 1
   211 000000E4 740C                        je _imprimir_mensaje
   212 000000E6 83FB02                      cmp ebx, 2
   213 000000E9 7402                        je _open
   214 000000EB EBB9                        jmp _menu
   215                                  
   216                                  _open:
   217 000000ED E982070000                  jmp _cargar_juego
   218                                  
   219                                  ;imprime el mensaje para pedir el tamaño maximo de la matriz
   220                                  ;registros utilizados:
   221                                  ; edx, ecx , eax, ebx
   222                                  _imprimir_mensaje:
   223 000000F2 BA3B000000                  mov edx,largo
   224 000000F7 B9[00000000]                mov ecx,mensaje
   225 000000FC E8EA030000                  call DisplayText
   226                                  
   227                                  ;imprime el mensaje para pedir x
   228                                  ;registros utilizados:
   229                                  ; edx, ecx , eax, ebx
   230                                  _imprimir_mensaje1:
   231 00000101 BA20000000                  mov edx,largo1
   232 00000106 B9[3B000000]                mov ecx,mensaje1
   233 0000010B E8DB030000                  call DisplayText
   234                                  
   235                                  ;Guarda el numero en ascii y entero
   236                                  ;registros utilizados:
   237                                  ; edx, ecx , eax, ebx, esi
   238                                  _entrada_x:
   239 00000110 B803000000                  mov eax, 3
   240 00000115 BB02000000                  mov ebx, 2
   241 0000011A B9[5B000000]                mov ecx, x
   242 0000011F BA20000000                  mov edx, largo1
   243 00000124 CD80                        int 80h
   244                                  ;se reduce el tamaño de eax para descontar el cambio de linea al introducir el ascii
   245 00000126 48                          dec eax
   246 00000127 83F800                      cmp eax, 0
   247 0000012A 74D5                        jz _imprimir_mensaje1
   248 0000012C A3[00000000]                mov dword[contadorx], eax
   249                                  ;llama a la subrutina de _ascii_numero, se encarga de pasar un ascii a entero
   250                                  ;se le envia un puntero en esi y un contador con el tamaño del numero introducido
   251 00000131 8D35[5B000000]              lea esi, [x]
   252 00000137 8B0D[00000000]              mov ecx, dword[contadorx]
   253 0000013D E891030000                  call _ascii_numero
   254 00000142 83F800                      cmp eax, 0
   255 00000145 0F84C4060000                jz _mensaje_error
   256 0000014B 83F810                      cmp eax, 16
   257 0000014E 0F8DCF060000                jge _limite_matriz
   258                                  ;se almacena en numerox el entero de lo introducido por el usuario
   259 00000154 A3[08000000]                mov dword[numerox],eax
   260                                  
   261                                  ;imprime el mensaje para pedir x
   262                                  ;registros utilizados:
   263                                  ; edx, ecx , eax, ebx
   264                                  _imprimir_mensaje2:
   265 00000159 BA1D000000                  mov edx,largo4
   266 0000015E B9[5F000000]                mov ecx,mensaje2
   267 00000163 E883030000                  call DisplayText
   268                                  
   269                                  ;Guarda el numero en ascii y entero
   270                                  ;registros utilizados:
   271                                  ; edx, ecx , eax, ebx, esi
   272                                  _entrada_y:
   273 00000168 B803000000                  mov eax, 3
   274 0000016D BB02000000                  mov ebx, 2
   275 00000172 B9[7C000000]                mov ecx, y
   276 00000177 BA04000000                  mov edx, largo5
   277 0000017C CD80                        int 80h
   278                                  ;se reduce el tamaño de eax para descontar el cambio de linea al introducir el ascii
   279 0000017E 48                          dec eax
   280 0000017F 83F800                      cmp eax, 0
   281 00000182 74D5                        jz _imprimir_mensaje2
   282 00000184 A3[04000000]                mov dword[contadory], eax
   283                                  
   284                                  ;llama a la subrutina de _ascii_numero, se encarga de pasar un ascii a entero
   285                                  ;se le envia un puntero en esi y un contador con el tamaño del numero introducido
   286 00000189 8D35[7C000000]              lea esi, [y]
   287 0000018F 8B0D[04000000]              mov ecx, dword[contadory]
   288 00000195 E839030000                  call _ascii_numero
   289 0000019A 83F800                      cmp eax, 0
   290 0000019D 0F846C060000                jz _mensaje_error
   291 000001A3 83F810                      cmp eax, 16
   292 000001A6 0F8D77060000                jge _limite_matriz
   293                                  ;guarda el tamaño de numeroy en entero
   294 000001AC 891D[0C000000]              mov dword[numeroy],ebx
   295                                  
   296                                  ;multiplica los numeros enteros pertenecientes a numerox y numeroy
   297                                  ;y el resultado es utilizado como contador para insertar espacios en blanco en la matriz
   298                                  ;registros utilizados:
   299                                  ; eax, ebx, ecx, esi
   300                                  _inicializa_matriz:
   301 000001B2 A1[08000000]                mov eax,dword[numerox]
   302 000001B7 89C3                        mov ebx, eax
   303 000001B9 A1[0C000000]                mov eax,dword[numeroy]
   304 000001BE 0FAFD8                      imul ebx, eax ; aqui se multiplican ambos numeros
   305 000001C1 891D[39010000]              mov dword[total_matriz],ebx; aca pasamos el largo de la matriz
   306 000001C7 89D9                        mov ecx, ebx ; se guarda en ecx para utilizarlo en un ciclo
   307 000001C9 8D35[10000000]              lea esi, [matriz] ;puntero al inicio de la matriz
   308                                  ;se encarga de meter un espacio en blanco en la memoria y mover el puntero
   309                                  ;se repite hasta llegar al final de la matriz
   310                                  .meter_espacio:
   311 000001CF C60620                      mov [esi], byte " "
   312 000001D2 46                          inc esi
   313 000001D3 E2FA                        loop .meter_espacio
   314 000001D5 A1[10000000]                mov eax,[matriz]
   315                                  ;llama a la subrutina de imprimir matriz, necesita un puntero al inicio de la matriz y el entero de y
   316 000001DA 8B0D[0C000000]              mov ecx, [numeroy]
   317 000001E0 8D35[10000000]              lea esi, [matriz]
   318 000001E6 E8FD030000                  call _imprimir_matriz
   319                                  
   320                                  ;imprime un mensaje mientras el juego carga
   321                                  ;registros utilizados:
   322                                  ; edx, ecx , eax, ebx
   323                                  _imprimir_mensaje3:
   324 000001EB BA1F000000                  mov edx,largo8
   325 000001F0 B9[C8000000]                mov ecx,mensaje3
   326 000001F5 E8F1020000                  call DisplayText
   327                                  
   328                                  ;inserta "P" para representar el muñeco que se va a mover 
   329                                  ;para esto realiza varios random y los introduce en memoria
   330                                  ;seguidamente despliega el muñeco en la matriz por medio de esa entrada "x" y "y" randoms
   331                                  ;registros utilizados:
   332                                  ; edx, ecx , eax, ebx, esi
   333                                  
   334                                  
   335                                  _inserta_persona:   
   336 000001FA E876050000                  call _random_x
   337 000001FF 8915[15010000]              mov dword[entrada_desplegable_y],edx
   338 00000205 8915[3F020000]              mov dword[posicionPX],edx
   339 0000020B E896050000                  call _random_y
   340 00000210 8915[11010000]              mov dword[entrada_desplegable_x],edx
   341 00000216 8915[43020000]              mov dword[posicionPY],edx
   342 0000021C A1[15010000]                mov eax,dword[entrada_desplegable_y]; se mete el entero de y
   343 00000221 8B15[11010000]              mov edx,dword[entrada_desplegable_x]; aqui se mete el entero de x
   344 00000227 8D35[10000000]              lea esi, [matriz]; puntero a inicio de matriz
   345 0000022D E8C6020000                  call _inserta_desplegable ;asi se llama la subrutina
   346 00000232 8B0D[0C000000]          	mov ecx, [numeroy] ; entero de total de y's metidas
   347 00000238 8D35[10000000]          	lea esi, [matriz]  ;puntero a inicio de matriz
   348 0000023E E8A5030000                  call _imprimir_matriz ;llamada a otra subrutina de impresion
   349                                  
   350                                  
   351 00000243 B904000000                  mov ecx,4 ;Cantidad de bombas
   352                                  
   353                                  ;inserta "B" para representar la bomba 
   354                                  ;para esto realiza varios random y los introduce en memoria
   355                                  ;seguidamente despliega la bomba en la matriz por medio de esa entrada "x" y "y" randoms
   356                                  ;registros utilizados:
   357                                  ; edx, ecx , eax, ebx, esi
   358                                  _despliega_bomba:
   359 00000248 51                          push ecx
   360 00000249 E827050000                  call _random_x
   361 0000024E 8915[29010000]              mov dword[BombaY],edx
   362 00000254 E890050000                  call _pausa
   363 00000259 E848050000                  call _random_y
   364 0000025E 8915[25010000]              mov dword[BombaX],edx
   365 00000264 E880050000                  call _pausa
   366 00000269 A1[29010000]                mov eax,dword[BombaY]; se mete el entero de y
   367 0000026E 8B15[25010000]              mov edx,dword[BombaX]; aqui se mete el entero de x
   368 00000274 8D35[10000000]              lea esi, [matriz]; puntero a inicio de matriz
   369 0000027A E8FE020000                  call _inserta_bomba ;asi se llama la subrutina
   370 0000027F 8B0D[0C000000]          	mov ecx, [numeroy] ; entero de total de y's metidas
   371 00000285 8D35[10000000]          	lea esi, [matriz]  ;puntero a inicio de matriz
   372                                      ;call _imprimir_matriz ;llamada a otra subrutina de impresion
   373 0000028B E859050000                  call _pausa
   374 00000290 59                          pop ecx
   375 00000291 E2B5                        loop _despliega_bomba
   376                                  
   377                                  
   378                                  ;inserta "T" para representar el tesoro
   379                                  ;para esto realiza varios random y los introduce en memoria
   380                                  ;seguidamente despliega el tesoro en la matriz por medio de esa entrada "x" y "y" randoms
   381                                  ;registros utilizados:
   382                                  ; edx, ecx , eax, ebx, esi
   383                                  _despliega_tesoro:
   384 00000293 E8DD040000                  call _random_x
   385 00000298 8915[31010000]              mov dword[TesoroY],edx
   386 0000029E E846050000                  call _pausa
   387 000002A3 E8FE040000                  call _random_y
   388 000002A8 8915[2D010000]              mov dword[TesoroX],edx
   389 000002AE E836050000                  call _pausa
   390 000002B3 A1[31010000]                mov eax,dword[TesoroY]; se mete el entero de y
   391 000002B8 8B15[2D010000]              mov edx,dword[TesoroX]; aqui se mete el entero de x
   392 000002BE 8D35[10000000]              lea esi, [matriz]; puntero a inicio de matriz
   393 000002C4 E820050000                  call _pausa
   394 000002C9 E8CD020000                  call _inserta_tesoro ;asi se llama la subrutina
   395 000002CE 8B0D[0C000000]          	mov ecx, [numeroy] ; entero de total de y's metidas
   396 000002D4 8D35[10000000]          	lea esi, [matriz]  ;puntero a inicio de matriz
   397 000002DA E809030000                  call _imprimir_matriz ;llamada a otra subrutina de impresion
   398                                  
   399                                  
   400                                  ;imprime un mensaje pidiendo el movimiento wasd del usuario
   401                                  ;registros utilizados:
   402                                  ; edx, ecx , eax, ebx
   403                                  _imprimir_mensaje4:
   404 000002DF BAB7000000                  mov edx,largo9
   405 000002E4 B9[E7000000]                mov ecx,mensaje4
   406 000002E9 E8FD010000                  call DisplayText
   407                                  
   408                                  ;Guarda la letra en ascii y la convierte a un entero que queda en ebx
   409                                  ;registros utilizados:
   410                                  ; edx, ecx , eax, ebx, esi
   411                                  _entrada_movimiento:
   412 000002EE B803000000                  mov eax, 3
   413 000002F3 BB02000000                  mov ebx, 2
   414 000002F8 B9[9E010000]                mov ecx, entrada_movimiento
   415 000002FD BA02000000                  mov edx, largo10
   416 00000302 CD80                        int 80h
   417 00000304 48                          dec eax
   418 00000305 83F801                      cmp eax, 1
   419 00000308 0F85AF010000                jnz _compara_movimientos.accion_nula
   420 0000030E A3[05010000]                mov dword[entrada_movimiento_tamanno], eax 
   421                                      
   422                                  ;convierte el ascii a entero por medio de la subrutina
   423                                  ;queda en ebx
   424 00000313 8D35[9E010000]              lea esi, [entrada_movimiento]
   425 00000319 8B0D[05010000]              mov ecx, dword[entrada_movimiento_tamanno]
   426 0000031F E8AF010000                  call _ascii_numero
   427                                  ;envia los enteros que corresponde a la posicion del personaje a la subrutina
   428 00000324 A1[15010000]                mov eax,dword[entrada_desplegable_y]
   429 00000329 8B15[11010000]              mov edx,dword[entrada_desplegable_x]
   430 0000032F E81F000000                  call _compara_movimientos
   431                                  ;llama a la subrutina de imprimir matriz, necesita un puntero al inicio de la matriz y el entero de y
   432 00000334 8B0D[0C000000]              mov ecx, [numeroy] ; entero de total de y's metidas
   433 0000033A 8D35[10000000]              lea esi, [matriz]  ;puntero a inicio de matriz
   434 00000340 E8A3020000                  call _imprimir_matriz ;llamada a otra subrutina de impresion
   435                                  ;esto lo convierte en un ciclo para que el usuario se pueda seguir moviendo
   436 00000345 EB98                        jmp _imprimir_mensaje4
   437                                  
   438                                  ;finaliza el programa
   439                                  _fin:
   440 00000347 BB00000000                  mov ebx,0
   441 0000034C B801000000                  mov eax,1
   442 00000351 CD80                        int 0x80
   443                                  
   444                                  ;Subrutina que se encarga de mover al jugador por el tablero
   445                                  ;utiliza los registros ebx, ecx, edx , eax, esi
   446                                  ;para ser llamada ocupa en ebx un entero que corresponde a una letra wasd, y necesita en eax, edx los enteros de y y x respectivamente
   447                                  ;se encarga de validar cual letra introduce, mostrar bombas y guardar
   448                                  _compara_movimientos:
   449 00000353 83FB47                      cmp ebx, 71
   450 00000356 0F8483000000                jz .es_w
   451 0000035C 83FB31                      cmp ebx, 49
   452 0000035F 7438                        jz .es_a
   453 00000361 83FB43                      cmp ebx, 67
   454 00000364 0F84BB000000                jz .es_s
   455 0000036A 83FB34                      cmp ebx, 52
   456 0000036D 0F8400010000                jz .es_d
   457 00000373 83FB46                      cmp ebx, 70
   458 00000376 0F844E030000                jz _imprimir_bombas
   459 0000037C 83FB01                      cmp ebx, 1
   460 0000037F 0F84B2040000                jz _guardar_partida_matriz
   461                                  
   462 00000385 B9[A2010000]                mov ecx, mensaje_error
   463 0000038A BA1F000000                  mov edx, largo_error
   464 0000038F E857010000                  call DisplayText
   465                                      ;pop ecx; saca la direccion de memoria de la pila que seguia por el call
   466 00000394 E955FFFFFF                  jmp _entrada_movimiento
   467                                  
   468                                  ;mueve a P si es a lo introducido
   469                                  .es_a:
   470                                  
   471 00000399 83F800                      cmp eax, 0; comprueba si el jugador está en un límite en la izquierda de la matriz
   472 0000039C 0F841B010000                jz .accion_nula; en eax está la posición en las columnas donde se encuentra el jugador
   473                                      
   474                                      ;guardamos eax y edx que serán modificados por _limpiador
   475 000003A2 50                          push eax
   476 000003A3 52                          push edx
   477 000003A4 8D35[10000000]              lea esi, [matriz]
   478 000003AA E81B020000                  call _limpiador ;se encarga de poner un espacio en blanco en una posicion de la memoria
   479                                      ;sacamos edx y eax y restamos a eax que será y para que vaya a la izquierda
   480 000003AF 5A                          pop edx
   481 000003B0 58                          pop eax
   482 000003B1 48                          dec eax
   483                                      ;llamada a subrutina que se encarga de validar ganar o perder
   484                                      ;le enviamos los enteros y un puntero al inicio de la matriz
   485 000003B2 A3[15010000]                mov dword[entrada_desplegable_y],eax
   486 000003B7 8915[11010000]              mov dword[entrada_desplegable_x],edx
   487 000003BD 8D35[10000000]              lea esi, [matriz]
   488 000003C3 E84E010000                  call _verifica_final
   489                                  ;despues de modificar los enteros de x y y y borrarlos, volvemos a insertar las nuevas coordenadas
   490                                  ;le enviamos los enteros y un puntero al inicio de la matriz
   491 000003C8 A1[15010000]                mov eax,dword[entrada_desplegable_y]
   492 000003CD 8B15[11010000]              mov edx,dword[entrada_desplegable_x]
   493 000003D3 8D35[10000000]              lea esi, [matriz]
   494 000003D9 E81A010000                  call _inserta_desplegable
   495 000003DE C3                          ret
   496                                  ;mueve a P si es w lo introducido
   497                                  ;note que es_w, es_d y es_s tiene la misma funcionalidad que a pero modifican el x y y de maneras diferentes
   498                                  ;por lo tanto su documentacion seria la misma
   499                                  ;el cambio consta en incrementar o decrementar un registro diferente unicamente
   500                                  .es_w:
   501                                  
   502 000003DF 83FA00                      cmp edx, 0; comprueba si el jugador está en un límite en la fila de arriba de la matriz
   503 000003E2 0F84D5000000                jz .accion_nula; edx tiene la posicion en las filas donde está el jugador
   504                                  
   505 000003E8 50                          push eax
   506 000003E9 52                          push edx
   507 000003EA 8D35[10000000]              lea esi, [matriz]
   508 000003F0 E8D5010000                  call _limpiador
   509 000003F5 5A                          pop edx
   510 000003F6 58                          pop eax
   511 000003F7 4A                          dec edx
   512 000003F8 A3[15010000]                mov dword[entrada_desplegable_y],eax
   513 000003FD 8915[11010000]              mov dword[entrada_desplegable_x],edx
   514 00000403 8D35[10000000]              lea esi, [matriz]
   515 00000409 E808010000                  call _verifica_final
   516 0000040E A1[15010000]                mov eax,dword[entrada_desplegable_y]
   517 00000413 8B15[11010000]              mov edx,dword[entrada_desplegable_x]
   518 00000419 8D35[10000000]              lea esi, [matriz]
   519 0000041F E8D4000000                  call _inserta_desplegable
   520 00000424 C3                          ret
   521                                  ;mueve a P si es s lo introducido
   522                                  ;note que es_w, es_d y es_s tiene la misma funcionalidad que a pero modifican el x y y de maneras diferentes
   523                                  ;por lo tanto su documentacion seria la misma
   524                                  ;el cambio consta en incrementar o decrementar un registro diferente unicamente
   525                                  .es_s:
   526                                  
   527 00000425 8B1D[0C000000]              mov ebx, [numeroy]; comprueba si el jugador está en un límite en la fila de abajo de la matriz
   528 0000042B 83EB01                      sub ebx, 1; ebx tiene la cantidad de filas que introdució el usuario
   529 0000042E 39DA                        cmp edx, ebx; se comprueba si el jugador se encuentra en la última fila de la matiz
   530 00000430 0F8487000000                jz .accion_nula
   531                                  
   532 00000436 50                          push eax
   533 00000437 52                          push edx
   534 00000438 8D35[10000000]              lea esi, [matriz]
   535 0000043E E887010000                  call _limpiador
   536 00000443 5A                          pop edx
   537 00000444 58                          pop eax
   538 00000445 42                          inc edx
   539 00000446 A3[15010000]                mov dword[entrada_desplegable_y],eax
   540 0000044B 8915[11010000]              mov dword[entrada_desplegable_x],edx
   541 00000451 8D35[10000000]              lea esi, [matriz]
   542 00000457 E8BA000000                  call _verifica_final
   543 0000045C A1[15010000]                mov eax,dword[entrada_desplegable_y]
   544 00000461 8B15[11010000]              mov edx,dword[entrada_desplegable_x]
   545 00000467 8D35[10000000]              lea esi, [matriz]
   546 0000046D E886000000                  call _inserta_desplegable
   547 00000472 C3                          ret
   548                                  ;mueve a P si es d lo introducido
   549                                  ;note que es_w, es_d y es_s tiene la misma funcionalidad que a pero modifican el x y y de maneras diferentes
   550                                  ;por lo tanto su documentacion seria la misma
   551                                  ;el cambio consta en incrementar o decrementar un registro diferente unicamente
   552                                  .es_d:
   553                                      
   554 00000473 8B1D[08000000]              mov ebx, [numerox]; comprueba si el jugador está en un límite en la columna derecha de la matriz
   555 00000479 83EB01                      sub ebx, 1; ebx tiene la cantidad de columnas que puso el jugador
   556 0000047C 39D8                        cmp eax, ebx;comprueba si el jugador se encuentra en la última columna de la matriz
   557 0000047E 743D                        jz .accion_nula
   558                                  
   559 00000480 50                          push eax
   560 00000481 52                          push edx
   561 00000482 8D35[10000000]              lea esi, [matriz]
   562 00000488 E83D010000                  call _limpiador
   563 0000048D 5A                          pop edx
   564 0000048E 58                          pop eax
   565 0000048F 40                          inc eax
   566 00000490 A3[15010000]                mov dword[entrada_desplegable_y],eax
   567 00000495 8915[11010000]              mov dword[entrada_desplegable_x],edx
   568 0000049B 8D35[10000000]              lea esi, [matriz]
   569 000004A1 E870000000                  call _verifica_final
   570 000004A6 A1[15010000]                mov eax,dword[entrada_desplegable_y]
   571 000004AB 8B15[11010000]              mov edx,dword[entrada_desplegable_x]
   572 000004B1 8D35[10000000]              lea esi, [matriz]
   573 000004B7 E83C000000                  call _inserta_desplegable
   574 000004BC C3                          ret
   575                                  
   576                                  .accion_nula:
   577 000004BD 8B0D[0C000000]              mov ecx, [numeroy]; en caso de que el jugador esté en los límites y ya no se puede mover, se vuelve a imprimir
   578 000004C3 8D35[10000000]              lea esi, [matriz];  la matriz y no se hace nada
   579 000004C9 E81A010000                  call _imprimir_matriz
   580 000004CE E90CFEFFFF                  jmp _imprimir_mensaje4
   581                                  
   582                                  ;subrutina que pasa de ascii a entero
   583                                  ; utiliza los registros:
   584                                  ; ebx, eax, esi
   585                                  ;para llamarla necesita en esi un puntero al inicio del ascii para pasar a entero
   586                                  ; y ocupa en ecx el tamaño de los caracteres introducidos, es decir si son uno, dos o mas letras
   587                                  _ascii_numero:
   588 000004D3 31DB                        xor ebx, ebx
   589                                  .siguiente_dig:
   590 000004D5 0FB606                      movzx eax,byte[esi]
   591 000004D8 46                          inc esi
   592 000004D9 2C30                        sub al, 48
   593 000004DB 6BDB0A                      imul ebx,10
   594 000004DE 01C3                        add ebx,eax
   595 000004E0 E2F3                        loop .siguiente_dig
   596 000004E2 89D8                        mov eax,ebx
   597 000004E4 C3                          ret
   598                                  
   599                                  _numero_ascii: ; convierte números enteros a ascii, necesita tener en dl el número a pasar, y lo retorna ya en ascii en ecx
   600 000004E5 80CA30                      or dl,30h         ;esto modifica el byte tratado a ascii
   601 000004E8 8811                        mov [ecx],byte dl ;se guarda el byte modificado
   602 000004EA C3                          ret
   603                                  
   604                                  
   605                                  ;subrutina que despliega texto en pantalla con llamadas al sistema
   606                                  ;modifica eax y ebx
   607                                  ; para llamarla necesita en ecx un puntero al inicio del texto y el tamaño en edx
   608                                  DisplayText:
   609 000004EB B804000000                  mov eax, 4
   610 000004F0 BB01000000                  mov ebx, 1
   611 000004F5 CD80                        int 80h
   612 000004F7 C3                          ret
   613                                  
   614                                  ;subrutina para introducir en matriz
   615                                  ;ocupa estas entradas:
   616                                  ;eax un numero entero que indique el y deseado
   617                                  ;edx un numero entero que indique el x deseado
   618                                  ;en esi ocupa un puntero al inicio de la matriz
   619                                  ; no tiene ninguna salida pero mete una "P" en memoria que seria el jugador
   620                                  
   621                                  _inserta_desplegable:
   622 000004F8 89C1                        mov ecx,eax
   623 000004FA 83F800                      cmp eax,0 ;esto verifica el caso en el que y sea cero
   624 000004FD 7403                        jz .verificar_y
   625                                  ;si no fuera 0 mueve esi hasta que lo sea
   626                                  .mover_x:
   627 000004FF 46                          inc esi
   628 00000500 E2FD                        loop .mover_x
   629                                  .verificar_y:
   630 00000502 89D1                        mov ecx, edx
   631 00000504 83FA00                      cmp edx,0
   632 00000507 7409                        jz .meter_desplegable ;verifica si x es 0
   633 00000509 A1[08000000]                mov eax,dword[numerox]
   634                                  ;en caso de no serlo mueve esi hasta que lo sea
   635                                  .mover_y:
   636 0000050E 01C6                        add esi,eax
   637 00000510 E2FC                        loop .mover_y
   638                                  ;al llegar a la ultima posicion introduce P en ese byte
   639                                  .meter_desplegable:
   640 00000512 C60650                      mov [esi], byte "P"
   641 00000515 C3                          ret
   642                                  
   643                                  ;subrutina para verificar si usuario ya ganó o perdió
   644                                  ;ocupa estas entradas:
   645                                  ;eax un numero entero que indique el y deseado
   646                                  ;edx un numero entero que indique el x deseado
   647                                  ;en esi ocupa un puntero al inicio de la matriz
   648                                  _verifica_final:
   649 00000516 89C1                        mov ecx,eax
   650 00000518 83F800                      cmp eax,0
   651 0000051B 7403                        jz .verificar_y_final
   652                                  .mover_x_final:
   653 0000051D 46                          inc esi
   654 0000051E E2FD                        loop .mover_x_final
   655                                  .verificar_y_final:
   656 00000520 89D1                        mov ecx, edx
   657 00000522 83FA00                      cmp edx,0
   658 00000525 7409                        jz .revisa_final
   659 00000527 A1[08000000]                mov eax,dword[numerox]
   660                                  .mover_y_final:
   661 0000052C 01C6                        add esi,eax
   662 0000052E E2FC                        loop .mover_y_final
   663                                  ;todo lo anterior funciona igual que _inserta_desplegable para llegar a una posicion en esi
   664                                  ;esto guarda lo apuntado por esi en memoria
   665                                  .revisa_final:
   666 00000530 8B0E                        mov ecx,dword[esi]
   667 00000532 890D[F1000000]              mov dword[letra_revisada],ecx
   668 00000538 8D35[F1000000]              lea esi, [letra_revisada]
   669 0000053E B901000000                  mov ecx, 1
   670 00000543 E88BFFFFFF                  call _ascii_numero ;convierte nuestro espacio en memoria en un entero para hacer validaciones
   671                                  
   672                                  ;valida si ebx es igual a alguno de los casos y se encarga de imprimir el mensaje deseado
   673                                  .llama_gana_pierde:
   674 00000548 83FB12                      cmp ebx, 18
   675 0000054B 741B                        jz .imprimir_mensaje_perdedor
   676 0000054D 83FB24                      cmp ebx, 36
   677 00000550 7402                        jz .imprimir_mensaje_ganador
   678 00000552 EB28                        jmp .continuar_normal
   679                                  ;imprime un mensaje de ganador en pantalla y finaliza el programa
   680                                  .imprimir_mensaje_ganador:
   681 00000554 BA35000000                  mov edx,largo_ganador
   682 00000559 B9[72020000]                mov ecx,mensaje_ganador
   683 0000055E E888FFFFFF                  call DisplayText
   684 00000563 E9DFFDFFFF                  jmp _fin
   685                                  ;imprime un mensaje de perdedor en pantalla y finaliza el programa
   686                                  .imprimir_mensaje_perdedor:
   687 00000568 BA43000000                  mov edx,largo_perdedor
   688 0000056D B9[2F020000]                mov ecx,mensaje_perdedor
   689 00000572 E874FFFFFF                  call DisplayText
   690 00000577 E9CBFDFFFF                  jmp _fin
   691                                  ;si no se cumple ninguno de los casos simplemente regresa
   692                                  .continuar_normal:
   693 0000057C C3                          ret
   694                                  
   695                                  _inserta_bomba:
   696 0000057D 89C1                        mov ecx,eax
   697 0000057F 83F800                      cmp eax,0
   698 00000582 7403                        jz .verificar_bomba_y
   699                                  .mover_bomba_x:
   700 00000584 46                          inc esi
   701 00000585 E2FD                        loop .mover_bomba_x
   702                                  .verificar_bomba_y:
   703 00000587 89D1                        mov ecx, edx
   704 00000589 83FA00                      cmp edx,0
   705 0000058C 7409                        jz .meter_desplegable_bomba
   706 0000058E A1[08000000]                mov eax,dword[numerox]
   707                                  .mover_bomba_y:
   708 00000593 01C6                        add esi,eax
   709 00000595 E2FC                        loop .mover_bomba_y
   710                                  .meter_desplegable_bomba:
   711 00000597 C60642                      mov [esi], byte "B"
   712 0000059A C3                          ret
   713                                  
   714                                  ;subrutina para introducir en matriz
   715                                  ;ocupa estas entradas:
   716                                  ;eax un numero entero que indique el y deseado
   717                                  ;edx un numero entero que indique el x deseado
   718                                  ;en esi ocupa un puntero al inicio de la matriz
   719                                  ; no tiene ninguna salida pero mete una "T" en memoria que seria el tesoro
   720                                  _inserta_tesoro:
   721 0000059B 89C1                        mov ecx,eax
   722 0000059D 83F800                      cmp eax,0
   723 000005A0 7403                        jz .verificar_tesoro_y
   724                                  .mover_tesoro_x:
   725 000005A2 46                          inc esi
   726 000005A3 E2FD                        loop .mover_tesoro_x
   727                                  .verificar_tesoro_y:
   728 000005A5 89D1                        mov ecx, edx
   729 000005A7 83FA00                      cmp edx,0
   730 000005AA 7409                        jz .meter_desplegable_tesoro
   731 000005AC A1[08000000]                mov eax,dword[numerox]
   732                                  .mover_tesoro_y:
   733 000005B1 01C6                        add esi,eax
   734 000005B3 E2FC                        loop .mover_tesoro_y
   735                                  .meter_desplegable_tesoro:
   736 000005B5 C60654                      mov [esi], byte "T"
   737 000005B8 C3                          ret
   738                                  
   739                                  ;necesita tener en eax el argumento
   740                                  _sacar_largo:
   741 000005B9 B900000000                  mov ecx, 0
   742                                  
   743                                  .sacar_largo_aux:
   744 000005BE 803800                      cmp byte[eax], 0; compara el primer caracter con nulo
   745 000005C1 7404                        jz .finaliza; si es cero ya finaliza
   746 000005C3 40                          inc eax; si no es nulo, incrementa el puntero al siguiente caracter
   747 000005C4 41                          inc ecx; incrementa el largo del argumento
   748 000005C5 EBF7                        jmp .sacar_largo_aux; continua con el siguiente caracter
   749                                  ;finaliza sacar_largo
   750                                  .finaliza:
   751 000005C7 89CA                        mov edx, ecx
   752 000005C9 C3                          ret
   753                                  
   754                                  
   755                                  ;subrutina para "limpiar" un lugar en matriz
   756                                  ;ocupa estas entradas:
   757                                  ;eax un numero entero que indique el y deseado
   758                                  ;edx un numero entero que indique el x deseado
   759                                  ;en esi ocupa un puntero al inicio de la matriz
   760                                  ; no tiene ninguna salida pero mete un " " en memoria que seria el lugar limpiado
   761                                  ;su funcionalidad es igual a _inserta_desplegable pero introduce un espacio en lugar de una P
   762                                  _limpiador:
   763 000005CA 89C1                        mov ecx,eax
   764 000005CC 83F800                      cmp eax,0
   765 000005CF 7403                        jz .verificar_y
   766                                  .mover_x:
   767 000005D1 46                          inc esi
   768 000005D2 E2FD                        loop .mover_x
   769                                  .verificar_y:
   770 000005D4 89D1                        mov ecx, edx
   771 000005D6 83FA00                      cmp edx,0
   772 000005D9 7409                        jz .meter_desplegable
   773 000005DB A1[08000000]                mov eax,dword[numerox]
   774                                  .mover_y:
   775 000005E0 01C6                        add esi,eax
   776 000005E2 E2FC                        loop .mover_y
   777                                  .meter_desplegable:
   778 000005E4 C60620                      mov [esi], byte " " ;esta linea es la unica diferencia
   779 000005E7 C3                          ret
   780                                  
   781                                  ;subrutina para imprimir la matriz con las bombas ocultas
   782                                  ; requerimentos:
   783                                  ; el registro esi debe estar apuntando al inicio de la matriz
   784                                  ; ecx debe tener la cantidad de filas introducidas por el usuario (numeroy)
   785                                  _imprimir_matriz:
   786 000005E8 51                          push ecx; se mete a la pila la cantidad de filas
   787 000005E9 B9[80000000]                mov ecx, linea_horizontal
   788 000005EE 8B15[08000000]              mov edx, [numerox]
   789 000005F4 83C201                      add edx, 1
   790 000005F7 6BD204                      imul edx, 4
   791 000005FA 83EA02                      sub edx, 2
   792 000005FD E8E9FEFFFF                  call DisplayText; se imprime una linea horizontal
   793 00000602 B9[C6000000]                mov ecx, salto_linea
   794 00000607 BA01000000                  mov edx, 1
   795 0000060C E8DAFEFFFF                  call DisplayText; se imprime un salto de linea
   796 00000611 8B0D[08000000]              mov ecx, [numerox]; movemos a ecx la cantidad de columnas
   797 00000617 E82C000000                  call .imprimir_contenido; empezamos a imprimir de fila en fila la matriz
   798 0000061C 59                          pop ecx
   799 0000061D E2C9                        loop _imprimir_matriz; hacemos loop hasta que se impriman todas las filas
   800 0000061F B9[80000000]                mov ecx, linea_horizontal
   801 00000624 8B15[08000000]              mov edx, [numerox]
   802 0000062A 83C201                      add edx, 1
   803 0000062D 6BD204                      imul edx, 4
   804 00000630 83EA02                      sub edx, 2
   805 00000633 E8B3FEFFFF                  call DisplayText; imprimimos una última línea horizontal
   806 00000638 B9[C6000000]                mov ecx, salto_linea
   807 0000063D BA01000000                  mov edx, 1
   808 00000642 E8A4FEFFFF                  call DisplayText; se imprime un salto de linea
   809 00000647 C3                          ret
   810                                      
   811                                  .imprimir_contenido:
   812 00000648 51                          push ecx; guardamos en la pila la cantidad de columnas
   813 00000649 B9[C3000000]                mov ecx, linea_vertical
   814 0000064E BA03000000                  mov edx, largo_vertical
   815 00000653 E893FEFFFF                  call DisplayText; imprimimos una linea vertical
   816 00000658 56                          push esi
   817 00000659 B901000000                  mov ecx, 1
   818 0000065E E870FEFFFF                  call _ascii_numero
   819 00000663 5E                          pop esi
   820 00000664 83FB12                      cmp ebx, 18; comprobamos que lo que esta en la matriz no sea una bomba
   821 00000667 742F                        jz .imprimir_espacio; si lo es, se imprime un espacio
   822 00000669 89F1                        mov ecx, esi; si no, movemos a ecx lo que se esté apuntando de la matriz
   823 0000066B BA01000000                  mov edx, 1
   824 00000670 E876FEFFFF                  call DisplayText; se imprime un caracter de la matriz
   825 00000675 46                          inc esi; se incrementa el esi para pasar a la siguiente letra
   826 00000676 59                          pop ecx
   827 00000677 E2CF                        loop .imprimir_contenido; hacemos un ciclo hasta que se acabe la fila
   828 00000679 B9[C3000000]                mov ecx, linea_vertical
   829 0000067E BA03000000                  mov edx, largo_vertical
   830 00000683 E863FEFFFF                  call DisplayText; imprimimos una última linea vertical
   831 00000688 B9[C6000000]                mov ecx, salto_linea
   832 0000068D BA01000000                  mov edx, 1
   833 00000692 E854FEFFFF                  call DisplayText; imprimimos un salto de linea
   834 00000697 C3                          ret
   835                                  
   836                                  ; esta función solo imprime un espacio y continúa con el ciclo normal de imprimir matriz
   837                                  .imprimir_espacio:
   838 00000698 B9[C7000000]                mov ecx, espacio
   839 0000069D BA01000000                  mov edx, 1
   840 000006A2 E844FEFFFF                  call DisplayText
   841 000006A7 46                          inc esi
   842 000006A8 59                          pop ecx
   843 000006A9 E29D                        loop .imprimir_contenido
   844 000006AB B9[C3000000]                mov ecx, linea_vertical
   845 000006B0 BA03000000                  mov edx, largo_vertical
   846 000006B5 E831FEFFFF                  call DisplayText
   847 000006BA B9[C6000000]                mov ecx, salto_linea
   848 000006BF BA01000000                  mov edx, 1
   849 000006C4 E822FEFFFF                  call DisplayText
   850 000006C9 C3                          ret
   851                                  
   852                                  ; esta función imprime la matriz pero muestra al usuario donde están las bombas
   853                                  ; esta función es igual a la de imprimir, pero no es necesario hacer la validación de si encuentra una B
   854                                  _imprimir_bombas:
   855 000006CA 8B0D[0C000000]              mov ecx, [numeroy]
   856 000006D0 8D35[10000000]              lea esi, [matriz]
   857                                  .imprimir_bombas_aux:
   858 000006D6 51                          push ecx
   859 000006D7 B9[80000000]                mov ecx, linea_horizontal
   860 000006DC 8B15[08000000]              mov edx, [numerox]
   861 000006E2 83C201                      add edx, 1
   862 000006E5 6BD204                      imul edx, 4
   863 000006E8 83EA02                      sub edx, 2
   864 000006EB E8FBFDFFFF                  call DisplayText
   865 000006F0 B9[C6000000]                mov ecx, salto_linea
   866 000006F5 BA01000000                  mov edx, 1
   867 000006FA E8ECFDFFFF                  call DisplayText
   868 000006FF 8B0D[08000000]              mov ecx, [numerox]
   869 00000705 E82C000000                  call .imprimir_contenido2
   870 0000070A 59                          pop ecx
   871 0000070B E2C9                        loop .imprimir_bombas_aux
   872 0000070D B9[80000000]                mov ecx, linea_horizontal
   873 00000712 8B15[08000000]              mov edx, [numerox]
   874 00000718 83C201                      add edx, 1
   875 0000071B 6BD204                      imul edx, 4
   876 0000071E 83EA02                      sub edx, 2
   877 00000721 E8C5FDFFFF                  call DisplayText
   878 00000726 B9[C6000000]                mov ecx, salto_linea
   879 0000072B BA01000000                  mov edx, 1
   880 00000730 E8B6FDFFFF                  call DisplayText
   881 00000735 C3                          ret
   882                                      
   883                                  .imprimir_contenido2:
   884 00000736 51                          push ecx
   885 00000737 B9[C3000000]                mov ecx, linea_vertical
   886 0000073C BA03000000                  mov edx, largo_vertical
   887 00000741 E8A5FDFFFF                  call DisplayText
   888 00000746 89F1                        mov ecx, esi
   889 00000748 BA01000000                  mov edx, 1
   890 0000074D E899FDFFFF                  call DisplayText
   891 00000752 46                          inc esi
   892 00000753 59                          pop ecx
   893 00000754 E2E0                        loop .imprimir_contenido2
   894 00000756 B9[C3000000]                mov ecx, linea_vertical
   895 0000075B BA03000000                  mov edx, largo_vertical
   896 00000760 E886FDFFFF                  call DisplayText
   897 00000765 B9[C6000000]                mov ecx, salto_linea
   898 0000076A BA01000000                  mov edx, 1
   899 0000076F E877FDFFFF                  call DisplayText
   900 00000774 C3                          ret
   901                                  
   902                                  
   903                                  ;Random por medio de la llamda sys_time
   904                                  ;Realiza randoms y a la vez pausas para que sys_time pueda cambiar y asi obtener otro valor random
   905                                  ;Una vez realizado el random por medio de un modulo se baja el rango que tira este y después se guarda en memoria
   906                                  ;Realiza un random para"y" y otra para "x"
   907                                  ;registros utilizados;
   908                                  ;eax,edx,ecx
   909                                  _random_x:
   910 00000775 E86F000000                  call _pausa
   911 0000077A 90                          nop
   912 0000077B E857000000                  call _srand
   913 00000780 E800000000                  call _rand_x
   914                                      
   915                                  _rand_x:
   916 00000785 A1[21010000]                mov eax, [numero]      ;mover a eax para realizar mul
   917 0000078A BB6D4EC641                  mov ebx, 1103515245   ; factor de multiplicacion
   918 0000078F F7E3                        mul ebx               ; eax = eax * ebx
   919 00000791 0539300000                  add eax, 12345        ; incrementar
   920 00000796 A3[21010000]                mov dword [numero], eax ; update numero value
   921 0000079B 8B1D[0C000000]              mov ebx,dword[numeroy]               ; modulo del aleatorio
   922 000007A1 31D2                        xor edx, edx          ; evitar cualquier numero punto flotante
   923 000007A3 F7F3                        div ebx               ; edx tiene el numero aleatorio
   924 000007A5 C3                          ret
   925                                  
   926                                  _random_y:
   927 000007A6 E83E000000                  call _pausa
   928 000007AB 90                          nop
   929 000007AC E826000000                  call _srand
   930 000007B1 E800000000                  call _rand_y
   931                                      
   932                                  _rand_y:
   933 000007B6 A1[21010000]                mov eax, [numero]      ;mover a eax para realizar mul
   934 000007BB BB6D4EC641                  mov ebx, 1103515245   ; factor de multiplicacion
   935 000007C0 F7E3                        mul ebx               ; eax = eax * ebx
   936 000007C2 0539300000                  add eax, 12345        ; incrementar
   937 000007C7 A3[21010000]                mov dword [numero], eax ; update numero value
   938 000007CC 8B1D[08000000]              mov ebx,dword[numerox]               ; modulo del aleatorio
   939 000007D2 31D2                        xor edx, edx          ; evitar cualquier numero punto flotante
   940 000007D4 F7F3                        div ebx               ; edx tiene el numero aleatorio
   941 000007D6 C3                          ret                   
   942                                  _srand:
   943 000007D7 B80D000000                  mov eax, 0x0d         ; sys_time
   944 000007DC BB00000000                  mov ebx, 0x0          ; NULL
   945 000007E1 CD80                        int 0x80              
   946 000007E3 A3[21010000]                mov dword [numero], eax 
   947 000007E8 C3                          ret 
   948                                  
   949                                  
   950                                  _pausa:
   951 000007E9 C705[F2020000]0100-         mov dword [tv_sec], 1
   951 000007F1 0000               
   952 000007F3 C705[F6020000]0000-         mov dword [tv_usec],0
   952 000007FB 0000               
   953 000007FD B8A2000000                  mov eax, 162
   954 00000802 BB[F2020000]                mov ebx, tiempos
   955 00000807 B900000000                  mov ecx, 0
   956 0000080C CD80                        int 80h
   957 0000080E C3                          ret
   958                                  
   959                                  _mensaje_error:; imprime un mensaje de error por si se introducen matrices con 0
   960 0000080F B9[C1010000]                mov ecx, mensaje_error2
   961 00000814 BA37000000                  mov edx, largo_error2
   962 00000819 E8CDFCFFFF                  call DisplayText
   963 0000081E E9DEF8FFFF                  jmp _imprimir_mensaje1
   964                                  
   965                                  _limite_matriz:; imprime un mensaje de error por si se introducen matrices mayores a 15
   966 00000823 B9[F8010000]                mov ecx, limite_matriz
   967 00000828 BA37000000                  mov edx, largo_limite
   968 0000082D E8B9FCFFFF                  call DisplayText
   969 00000832 E9CAF8FFFF                  jmp _imprimir_mensaje1
   970                                  
   971                                  ;guarda la matriz llamando las funciones de manejar archivos
   972                                  ;registros usados
   973                                  ;eax,ebx,ecx,edx
   974                                  _guardar_partida_matriz:
   975 00000837 E818010000                  call _abrir_archivo_matriz
   976 0000083C E86B010000                  call _escribe_archivo_numerox
   977 00000841 E898010000                  call _escribe_archivo_separador
   978 00000846 E8DB010000                  call _cerrar_archivo_matriz
   979                                  
   980 0000084B E804010000                  call _abrir_archivo_matriz
   981 00000850 E870010000                  call _escribe_archivo_numeroy
   982 00000855 E884010000                  call _escribe_archivo_separador
   983 0000085A E8C7010000                  call _cerrar_archivo_matriz
   984                                  
   985 0000085F E8F0000000                  call _abrir_archivo_matriz
   986 00000864 E82A010000                  call _escribe_archivo_matriz
   987 00000869 E870010000                  call _escribe_archivo_separador
   988 0000086E E8B3010000                  call _cerrar_archivo_matriz
   989                                      
   990 00000873 C3                          ret
   991                                  
   992                                  ;carga el juego que se guardo previamente 
   993                                  ;para esto anteriormente en guardar partida separamos los datos con "="para en esta función leerlos y utilizarlos.
   994                                  ;registros utilizados
   995                                  ;eax,ecx,edx,ebx,esi,edi
   996                                  _cargar_juego:
   997                                  
   998 00000874 E8DB000000                  call _abrir_archivo_matriz
   999 00000879 E8F7000000                  call _leer_archivo_matriz
  1000 0000087E E8A3010000                  call _cerrar_archivo_matriz
  1001                                  
  1002 00000883 8D35[45010000]              lea esi,[matriz_cargada]
  1003 00000889 BA00000000                  mov edx, 0
  1004 0000088E 89F1                        mov ecx, esi
  1005                                  
  1006                                  .cargar_aux_x:
  1007 00000890 B901000000                  mov ecx, 1
  1008 00000895 E839FCFFFF                  call _ascii_numero
  1009 0000089A 83FB0D                      cmp ebx, 13
  1010 0000089D 7405                        je .fucn
  1011 0000089F 83C201                      add edx, 1
  1012 000008A2 EBEC                        jmp .cargar_aux_x
  1013                                  .fucn:
  1014 000008A4 8D35[45010000]              lea esi, [matriz_cargada]
  1015 000008AA 89D1                        mov ecx, edx
  1016 000008AC E822FCFFFF                  call _ascii_numero
  1017 000008B1 891D[08000000]              mov dword[numerox], ebx
  1018 000008B7 46                          inc esi
  1019 000008B8 BA00000000                  mov edx, 0
  1020 000008BD 56                          push esi
  1021                                  .cargar_aux_y:
  1022 000008BE B901000000                  mov ecx, 1
  1023 000008C3 E80BFCFFFF                  call _ascii_numero
  1024 000008C8 83FB0D                      cmp ebx, 13
  1025 000008CB 7405                        je .fucn2
  1026                                  
  1027 000008CD 83C201                      add edx, 1
  1028 000008D0 EBEC                        jmp .cargar_aux_y
  1029                                  .fucn2:
  1030 000008D2 5E                          pop esi
  1031 000008D3 89D1                        mov ecx, edx
  1032 000008D5 E8F9FBFFFF                  call _ascii_numero
  1033 000008DA 891D[0C000000]              mov dword[numeroy], ebx
  1034 000008E0 46                          inc esi
  1035 000008E1 8D3D[10000000]              lea edi, [matriz]
  1036                                  .cargar_matriz:
  1037 000008E7 89F0                        mov eax, esi;metemos a eax la matriz archivo
  1038 000008E9 8D37                        lea esi, [edi];movemos a esi la matriz a cargar
  1039 000008EB 56                          push esi;metemos la matriz a cargar a la pila
  1040 000008EC 8D30                        lea esi, [eax];movemos a esi una letra de la matriz archivo
  1041 000008EE 89C2                        mov edx, eax;movemos a edx matriz archivo
  1042 000008F0 B901000000                  mov ecx, 1
  1043 000008F5 E8D9FBFFFF                  call _ascii_numero;comprobamos cada caracter de la matriz archivo
  1044 000008FA 83FB0D                      cmp ebx, 13
  1045 000008FD 741B                        je .terminar
  1046 000008FF 83FB12                      cmp ebx,18
  1047 00000902 742C                        je .inserta_B
  1048 00000904 83FB20                      cmp ebx,32
  1049 00000907 7433                        je .inserta_P
  1050 00000909 83FB24                      cmp ebx,36
  1051 0000090C 743A                        je .inserta_T
  1052 0000090E 5E                          pop esi;saca la matriz a cargar a esi
  1053 0000090F C60620                      mov [esi],byte " ";movemos a esa parte la letra de la matriz archivo
  1054 00000912 46                          inc esi;matriz a cargar; se incrementa matriz a cargar
  1055 00000913 8D3E                        lea edi, [esi]
  1056 00000915 42                          inc edx;matriz archivo; se incrementa matriz
  1057 00000916 8D32                        lea esi, [edx];movemos a esi la matriz archivo, apuntando al siguiente caracter
  1058 00000918 EBCD                        jmp .cargar_matriz
  1059                                  
  1060                                  
  1061                                  .terminar:
  1062 0000091A 8B0D[0C000000]              mov ecx, [numeroy]
  1063 00000920 8D35[10000000]              lea esi, [matriz]
  1064 00000926 E8BDFCFFFF                  call _imprimir_matriz
  1065 0000092B E9AFF9FFFF                  jmp _imprimir_mensaje4
  1066                                  .inserta_B:
  1067 00000930 5E                          pop esi;saca la matriz a cargar a esi
  1068 00000931 C60642                      mov [esi],byte "B";movemos a esa parte la letra de la matriz archivo
  1069 00000934 46                          inc esi;matriz a cargar; se incrementa matriz a cargar
  1070 00000935 8D3E                        lea edi, [esi]
  1071 00000937 42                          inc edx;matriz archivo; se incrementa matriz
  1072 00000938 8D32                        lea esi, [edx]
  1073 0000093A EBAB                        jmp .cargar_matriz
  1074                                  .inserta_P:
  1075 0000093C 5E                          pop esi;saca la matriz a cargar a esi
  1076 0000093D C60650                      mov [esi],byte "P";movemos a esa parte la letra de la matriz archivo
  1077 00000940 46                          inc esi;matriz a cargar; se incrementa matriz a cargar
  1078 00000941 8D3E                        lea edi, [esi]
  1079 00000943 42                          inc edx;matriz archivo; se incrementa matriz
  1080 00000944 8D32                        lea esi, [edx]
  1081 00000946 EB9F                        jmp .cargar_matriz
  1082                                  .inserta_T:
  1083 00000948 5E                          pop esi;saca la matriz a cargar a esi
  1084 00000949 C60654                      mov [esi],byte "T";movemos a esa parte la letra de la matriz archivo
  1085 0000094C 46                          inc esi;matriz a cargar; se incrementa matriz a cargar
  1086 0000094D 8D3E                        lea edi, [esi]
  1087 0000094F 42                          inc edx;matriz archivo; se incrementa matriz
  1088 00000950 8D32                        lea esi, [edx]
  1089 00000952 EB93                        jmp .cargar_matriz
  1090                                  
  1091                                  ;se abre el archivo por medio de sys_open que es una llamada al sistema.
  1092                                  ;ecx son las banderas, en este caso de la bandera de creat,append,read and write todo en octal.
  1093                                  ;el creat crea el archivo si no está creado, el append se dirige al final del archivo(si hay un nombre una linea abajo del nombre), y da una bandera para leer(read) y escribir(write).
  1094                                  ;ebx donde se creara el archivo, si esta creado solo abre el archivo.
  1095                                  ;eax llamamos a sys_open por medio de 8.
  1096                                  ;edx son los permisos para el archivo, en este caso se da permiso de leer, escribir y ejecutar.
  1097                                  ;Después de abrirse con éxito, en el registro eax se dejará el descriptor del archivo creado o abierto por lo que se guarda en id.
  1098                                  
  1099                                  _abrir_archivo_matriz:
  1100 00000954 A1[DF020000]                    mov eax, dword[archivo_matriz2]
  1101 00000959 B942040000                    mov ecx,2102o
  1102 0000095E BAC0010000                    mov edx,00700o
  1103 00000963 BB[DF020000]                  mov ebx,archivo_matriz2
  1104 00000968 B805000000                    mov eax,5
  1105 0000096D CD80                          int 80h
  1106 0000096F A3[35010000]                  mov dword[id1],eax
  1107 00000974 C3                            ret
  1108                                  
  1109                                  ;se lee el archivo por medio de sys_read que es una llamada al sistema.
  1110                                  ;ecx se guarda lo que contiene del archivo.
  1111                                  ;ebx se pone el descriptor de archivo.
  1112                                  ;eax llamamos a sys_read por medio de 3.
  1113                                  ;edx se pone la cantidad a leer del archivo.
  1114                                  ;Después de leerse con éxito, en el registro eax se dejará el descriptor del archivo leído por lo que se guarda en id.
  1115                                  
  1116                                  _leer_archivo_matriz:
  1117                                  
  1118 00000975 BAFA000000                    mov edx,250
  1119 0000097A B9[45010000]                  mov ecx,matriz_cargada
  1120 0000097F 8B1D[35010000]                mov ebx,dword[id1]
  1121 00000985 B803000000                    mov eax,3
  1122 0000098A CD80                          int 80h
  1123 0000098C 8B0D[45010000]                mov ecx, dword[matriz_cargada]
  1124                                        
  1125 00000992 C3                            ret
  1126                                  ;se escribe en el archivo por medio de sys_write que es una llamada al sistema.
  1127                                  ;ecx se envía el mensaje a escribir (en esta caso entrada es el nombre que el usuario ingresó).
  1128                                  ;edx se envía el largo del mensaje a escribir.
  1129                                  ;ebx descriptor del archivo en donde se escribirá.
  1130                                  ;eax llamamos a sys_write por medio de 4.
  1131                                  
  1132                                  _escribe_archivo_matriz:
  1133 00000993 8B15[39010000]                  mov edx,dword[total_matriz]
  1134 00000999 B9[10000000]                    mov ecx,matriz
  1135 0000099E 8B1D[35010000]                  mov ebx,dword[id1]
  1136 000009A4 B804000000                      mov eax, 4
  1137 000009A9 CD80                            int 80h
  1138                                          
  1139 000009AB C3                              ret
  1140                                  
  1141                                  _escribe_archivo_numerox:
  1142 000009AC 8B15[00000000]                  mov edx,dword[contadorx]
  1143 000009B2 B9[5B000000]                    mov ecx,x
  1144 000009B7 8B1D[35010000]                  mov ebx,dword[id1]
  1145 000009BD B804000000                      mov eax, 4
  1146 000009C2 CD80                            int 80h
  1147                                          
  1148 000009C4 C3                              ret
  1149                                  
  1150                                  _escribe_archivo_numeroy:
  1151 000009C5 8B15[04000000]                  mov edx,dword[contadory]
  1152 000009CB B9[7C000000]                    mov ecx,y
  1153 000009D0 8B1D[35010000]                  mov ebx,dword[id1]
  1154 000009D6 B804000000                      mov eax, 4
  1155 000009DB CD80                            int 80h
  1156                                          
  1157 000009DD C3                              ret
  1158                                  
  1159                                  _escribe_archivo_separador:
  1160 000009DE BA01000000                      mov edx,1
  1161 000009E3 B9[F1020000]                    mov ecx,separador
  1162 000009E8 8B1D[35010000]                  mov ebx,dword[id1]
  1163 000009EE B804000000                      mov eax, 4
  1164 000009F3 CD80                            int 80h    
  1165 000009F5 C3                              ret
  1166                                          
  1167                                  _escribe_posicionX:
  1168 000009F6 B804000000                      mov eax,4 
  1169 000009FB B9[3F020000]                    mov ecx, posicionPX
  1170 00000A00 BA02000000                      mov edx,2
  1171 00000A05 8B1D[35010000]                  mov ebx, dword[id1]
  1172 00000A0B CD80                            int 80h
  1173                                      
  1174 00000A0D C3                              ret
  1175                                  
  1176                                  _escribe_posicionY:
  1177 00000A0E B804000000                      mov eax, 4
  1178 00000A13 B9[43020000]                    mov ecx, posicionPY
  1179 00000A18 BA02000000                      mov edx, 2
  1180 00000A1D 8B1D[35010000]                  mov ebx, dword[id1]
  1181 00000A23 CD80                            int 80h
  1182                                      
  1183 00000A25 C3                              ret
  1184                                  ;se cierra el archivo por medio de sys_close que es una llamada al sistema.
  1185                                  ;ebx descriptor de archivo a cerrar.
  1186                                  ;eax, llamamos a sys_close por medio de 6.
  1187                                  
  1188                                  _cerrar_archivo_matriz:
  1189                                  
  1190 00000A26 8B1D[35010000]                mov ebx,dword[id1]
  1191 00000A2C B806000000                    mov eax,6
  1192 00000A31 CD80                          int 80h
  1193 00000A33 C3                            ret
